EDA
…
data1

# A tibble: 253,680 × 22
   Diabetes_binary HighBP HighChol CholCheck   BMI Smoker Stroke
             <dbl>  <dbl>    <dbl>     <dbl> <dbl>  <dbl>  <dbl>
 1               0      1        1         1    40      1      0
 2               0      0        0         0    25      1      0
 3               0      1        1         1    28      0      0
 4               0      1        0         1    27      0      0
 5               0      1        1         1    24      0      0
 6               0      1        1         1    25      1      0
 7               0      1        0         1    30      1      0
 8               0      1        1         1    25      1      0
 9               1      1        1         1    30      1      0
10               0      0        0         1    24      0      0
# ℹ 253,670 more rows
# ℹ 15 more variables: HeartDiseaseorAttack <dbl>, PhysActivity <dbl>,
#   Fruits <dbl>, Veggies <dbl>, HvyAlcoholConsump <dbl>, AnyHealthcare <dbl>,
#   NoDocbcCost <dbl>, GenHlth <dbl>, MentHlth <dbl>, PhysHlth <dbl>,
#   DiffWalk <dbl>, Sex <dbl>, Age <dbl>, Education <dbl>, Income <dbl>
…
data1

# A tibble: 253,680 × 22
   Diabetes_binary HighBP HighChol CholCheck   BMI Smoker Stroke
             <dbl> <fct>  <fct>        <dbl> <dbl> <fct>  <fct> 
 1               0 Yes    Yes              1    40 Yes    No    
 2               0 No     No               0    25 Yes    No    
 3               0 Yes    Yes              1    28 No     No    
 4               0 Yes    No               1    27 No     No    
 5               0 Yes    Yes              1    24 No     No    
 6               0 Yes    Yes              1    25 Yes    No    
 7               0 Yes    No               1    30 Yes    No    
 8               0 Yes    Yes              1    25 Yes    No    
 9               1 Yes    Yes              1    30 Yes    No    
10               0 No     No               1    24 No     No    
# ℹ 253,670 more rows
# ℹ 15 more variables: HeartDiseaseorAttack <fct>, PhysActivity <fct>,
#   Fruits <fct>, Veggies <dbl>, HvyAlcoholConsump <fct>, AnyHealthcare <dbl>,
#   NoDocbcCost <dbl>, GenHlth <fct>, MentHlth <dbl>, PhysHlth <dbl>,
#   DiffWalk <dbl>, Sex <dbl>, Age <dbl>, Education <dbl>, Income <dbl>
…
data1

# A tibble: 253,680 × 22
   Diabetes_binary HighBP HighChol CholCheck   BMI Smoker Stroke
   <fct>           <fct>  <fct>        <dbl> <dbl> <fct>  <fct> 
 1 No              Yes    Yes              1    40 Yes    No    
 2 No              No     No               0    25 Yes    No    
 3 No              Yes    Yes              1    28 No     No    
 4 No              Yes    No               1    27 No     No    
 5 No              Yes    Yes              1    24 No     No    
 6 No              Yes    Yes              1    25 Yes    No    
 7 No              Yes    No               1    30 Yes    No    
 8 No              Yes    Yes              1    25 Yes    No    
 9 Yes             Yes    Yes              1    30 Yes    No    
10 No              No     No               1    24 No     No    
# ℹ 253,670 more rows
# ℹ 15 more variables: HeartDiseaseorAttack <fct>, PhysActivity <fct>,
#   Fruits <fct>, Veggies <dbl>, HvyAlcoholConsump <fct>, AnyHealthcare <dbl>,
#   NoDocbcCost <dbl>, GenHlth <fct>, MentHlth <dbl>, PhysHlth <dbl>,
#   DiffWalk <dbl>, Sex <dbl>, Age <dbl>, Education <dbl>, Income <dbl>
