Modeling
…
# data_split <- initial_split(data1, prop = 0.7, strata = Diabetes_binary)
# training_data <- training(data_split)
# test_data <- testing(data_split)
# print(class(data1))

total_rows <- 253680
train_indices <- sample(seq_len(total_rows), size = floor(0.7 * total_rows))

# Split using `data1`
training_data <- data1[train_indices, ]
test_data <- data1[-train_indices, ]
test_data

# A tibble: 76,104 × 22
   Diabetes_binary HighBP HighChol CholCheck   BMI Smoker Stroke
   <fct>           <fct>  <fct>        <dbl> <dbl> <fct>  <fct> 
 1 No              No     No               0    25 Yes    No    
 2 No              Yes    No               1    27 No     No    
 3 No              Yes    Yes              1    24 No     No    
 4 No              Yes    Yes              1    25 Yes    No    
 5 Yes             Yes    Yes              1    28 No     No    
 6 No              No     Yes              1    33 Yes    Yes   
 7 No              Yes    Yes              1    28 Yes    No    
 8 No              No     No               1    32 No     No    
 9 Yes             Yes    Yes              1    37 Yes    Yes   
10 Yes             Yes    Yes              1    28 Yes    No    
# ℹ 76,094 more rows
# ℹ 15 more variables: HeartDiseaseorAttack <fct>, PhysActivity <fct>,
#   Fruits <fct>, Veggies <dbl>, HvyAlcoholConsump <fct>, AnyHealthcare <dbl>,
#   NoDocbcCost <dbl>, GenHlth <fct>, MentHlth <dbl>, PhysHlth <dbl>,
#   DiffWalk <dbl>, Sex <dbl>, Age <dbl>, Education <dbl>, Income <dbl>
…
